cods7/simulation/qsim/cod.msim.vcd
$comment
	File created using the following command:
		vcd file cod.msim.vcd -direction
$end
$date
	Tue Apr 18 16:58:05 2023
$end
$version
	ModelSim Version 10.1d
$end
$timescale
	1ps
$end
$scope module cod_vlg_vec_tst $end
$var reg 8 ! v [7:0] $end
$var wire 1 " f [3] $end
$var wire 1 # f [2] $end
$var wire 1 $ f [1] $end
$var wire 1 % f [0] $end
$var wire 1 & sampler $end
$scope module i1 $end
$var wire 1 ' gnd $end
$var wire 1 ( vcc $end
$var wire 1 ) unknown $end
$var tri1 1 * devclrn $end
$var tri1 1 + devpor $end
$var tri1 1 , devoe $end
$var wire 1 - f[0]~output_o $end
$var wire 1 . f[1]~output_o $end
$var wire 1 / f[2]~output_o $end
$var wire 1 0 f[3]~output_o $end
$var wire 1 1 v[3]~input_o $end
$var wire 1 2 v[5]~input_o $end
$var wire 1 3 v[7]~input_o $end
$var wire 1 4 v[1]~input_o $end
$var wire 1 5 v[0]~input_o $end
$var wire 1 6 v[2]~input_o $end
$var wire 1 7 v[6]~input_o $end
$var wire 1 8 v[4]~input_o $end
$var wire 1 9 f~5_combout $end
$var wire 1 : f~3_combout $end
$var wire 1 ; f~17_combout $end
$var wire 1 < Equal5~0_combout $end
$var wire 1 = Equal2~0_combout $end
$var wire 1 > f~12_combout $end
$var wire 1 ? Equal1~0_combout $end
$var wire 1 @ Equal4~0_combout $end
$var wire 1 A f~11_combout $end
$var wire 1 B f~13_combout $end
$var wire 1 C Equal5~1_combout $end
$var wire 1 D Equal4~1_combout $end
$var wire 1 E f~14_combout $end
$var wire 1 F f~10_combout $end
$var wire 1 G f~15_combout $end
$var wire 1 H f~16_combout $end
$upscope $end
$upscope $end
$enddefinitions $end
#0
$dumpvars
b0 !
1%
1$
1#
1"
x&
0'
1(
x)
1*
1+
1,
1-
1.
1/
10
01
02
03
04
05
06
07
08
19
1:
1;
1<
1=
1>
1?
1@
1A
1B
0C
0D
1E
1F
1G
1H
$end
#3125
b1 !
15
0&
0A
0<
09
0=
0:
0E
0B
0/
0.
0#
0$
0;
0H
0-
00
0%
0"
#6250
b11 !
b10 !
05
14
1&
19
1:
1;
1-
1%
#9375
b11 !
15
0&
1A
09
1E
1B
1/
1.
1#
1$
1H
10
1"
#12500
b111 !
b101 !
b100 !
05
04
16
1&
1<
0:
0@
0F
1C
0;
0-
0%
0H
0E
00
0/
0"
0#
#15625
b101 !
15
0&
0<
19
1F
0C
1:
1H
1E
1;
10
1/
1-
1"
1#
1%
#18750
b111 !
b110 !
05
14
1&
09
#21875
b111 !
15
0&
19
#25000
b1111 !
b1011 !
b1001 !
b1000 !
05
04
06
11
1&
1@
1D
0H
0E
00
0/
0"
0#
#28125
b1001 !
15
0&
0D
09
0:
1H
1E
10
1/
1"
1#
#31250
b1011 !
b1010 !
05
14
1&
19
1:
#34375
b1011 !
15
0&
09
#37500
b1111 !
b1101 !
b1100 !
05
04
16
1&
1D
0:
0@
0D
0H
0E
00
0/
0"
0#
1H
1E
10
1/
1"
1#
#40625
b1101 !
15
0&
19
1:
#43750
b1111 !
b1110 !
05
14
1&
09
#46875
b1111 !
15
0&
19
#50000
b11111 !
b10111 !
b10011 !
b10001 !
b10000 !
05
04
06
01
18
1&
1<
09
1@
0?
1=
0:
0@
0>
0;
0-
0%
0B
0.
0$
0H
00
0"
#53125
b10001 !
15
0&
0<
19
0=
1:
1>
1;
1-
1%
1B
1.
1$
1H
10
1"
#56250
b10011 !
b10010 !
05
14
1&
09
#59375
b10011 !
15
0&
19
#62500
b10111 !
b10101 !
b10100 !
05
04
16
1&
1<
#65625
b10101 !
15
0&
0<
#68750
b10111 !
b10110 !
05
14
1&
#71875
b10111 !
15
0&
#75000
b11111 !
b11011 !
b11001 !
b11000 !
05
04
06
11
1&
09
0:
#78125
b11001 !
15
0&
19
1:
#81250
b11011 !
b11010 !
05
14
1&
09
#84375
b11011 !
15
0&
19
#87500
b11111 !
b11101 !
b11100 !
05
04
16
1&
#90625
b11101 !
15
0&
#93750
b11111 !
b11110 !
05
14
1&
#96875
b11111 !
15
0&
#100000
b111111 !
b101111 !
b100111 !
b100011 !
b100001 !
b100000 !
05
04
06
01
08
12
1&
1<
1=
0>
0B
0.
0$
0H
00
0"
#103125
b100001 !
15
0&
0<
09
0=
0:
1>
1B
1.
1$
1H
10
1"
#106250
b100011 !
b100010 !
05
14
1&
19
1:
#109375
b100011 !
15
0&
09
#112500
b100111 !
b100101 !
b100100 !
05
04
16
1&
1<
0:
#115625
b100101 !
15
0&
0<
19
1:
#118750
b100111 !
b100110 !
05
14
1&
09
#121875
b100111 !
15
0&
19
#125000
b101111 !
b101011 !
b101001 !
b101000 !
05
04
06
11
1&
#128125
b101001 !
15
0&
09
0:
#131250
b101011 !
b101010 !
05
14
1&
19
1:
#134375
b101011 !
15
0&
09
#137500
b101111 !
b101101 !
b101100 !
05
04
16
1&
0:
#140625
b101101 !
15
0&
19
1:
#143750
b101111 !
b101110 !
05
14
1&
09
#146875
b101111 !
15
0&
19
#150000
b111111 !
b110111 !
b110011 !
b110001 !
b110000 !
05
04
06
01
18
1&
1<
09
1=
0:
#153125
b110001 !
15
0&
0<
19
0=
1:
#156250
b110011 !
b110010 !
05
14
1&
09
#159375
b110011 !
15
0&
19
#162500
b110111 !
b110101 !
b110100 !
05
04
16
1&
1<
#165625
b110101 !
15
0&
0<
#168750
b110111 !
b110110 !
05
14
1&
#171875
b110111 !
15
0&
#175000
b111111 !
b111011 !
b111001 !
b111000 !
05
04
06
11
1&
09
0:
#178125
b111001 !
15
0&
19
1:
#181250
b111011 !
b111010 !
05
14
1&
09
#184375
b111011 !
15
0&
19
#187500
b111111 !
b111101 !
b111100 !
05
04
16
1&
#190625
b111101 !
15
0&
#193750
b111111 !
b111110 !
05
14
1&
#196875
b111111 !
15
0&
#200000
b1111111 !
b1011111 !
b1001111 !
b1000111 !
b1000011 !
b1000001 !
b1000000 !
05
04
06
01
08
02
17
1&
1<
09
1?
0F
0:
0H
0;
00
0-
0"
0%
#203125
b1000001 !
15
0&
0<
19
1F
1:
1H
1;
10
1-
1"
1%
#206250
b1000011 !
b1000010 !
05
14
1&
09
#209375
b1000011 !
15
0&
19
#212500
b1000111 !
b1000101 !
b1000100 !
05
04
16
1&
1<
#215625
b1000101 !
15
0&
0<
#218750
b1000111 !
b1000110 !
05
14
1&
#221875
b1000111 !
15
0&
#225000
b1001111 !
b1001011 !
b1001001 !
b1001000 !
05
04
06
11
1&
09
0:
#228125
b1001001 !
15
0&
19
1:
#231250
b1001011 !
b1001010 !
05
14
1&
09
#234375
b1001011 !
15
0&
19
#237500
b1001111 !
b1001101 !
b1001100 !
05
04
16
1&
#240625
b1001101 !
15
0&
#243750
b1001111 !
b1001110 !
05
14
1&
#246875
b1001111 !
15
0&
#250000
b1011111 !
b1010111 !
b1010011 !
b1010001 !
b1010000 !
05
04
06
01
18
1&
1<
0?
#253125
b1010001 !
15
0&
0<
#256250
b1010011 !
b1010010 !
05
14
1&
#259375
b1010011 !
15
0&
#262500
b1010111 !
b1010101 !
b1010100 !
05
04
16
1&
1<
#265625
b1010101 !
15
0&
0<
#268750
b1010111 !
b1010110 !
05
14
1&
#271875
b1010111 !
15
0&
#275000
b1011111 !
b1011011 !
b1011001 !
b1011000 !
05
04
06
11
1&
#278125
b1011001 !
15
0&
#281250
b1011011 !
b1011010 !
05
14
1&
#284375
b1011011 !
15
0&
#287500
b1011111 !
b1011101 !
b1011100 !
05
04
16
1&
#290625
b1011101 !
15
0&
#293750
b1011111 !
b1011110 !
05
14
1&
#296875
b1011111 !
15
0&
#300000
b1111111 !
b1101111 !
b1100111 !
b1100011 !
b1100001 !
b1100000 !
05
04
06
01
08
12
1&
1<
09
0:
#303125
b1100001 !
15
0&
0<
19
1:
#306250
b1100011 !
b1100010 !
05
14
1&
09
#309375
b1100011 !
15
0&
19
#312500
b1100111 !
b1100101 !
b1100100 !
05
04
16
1&
1<
#315625
b1100101 !
15
0&
0<
#318750
b1100111 !
b1100110 !
05
14
1&
#321875
b1100111 !
15
0&
#325000
b1101111 !
b1101011 !
b1101001 !
b1101000 !
05
04
06
11
1&
09
0:
#328125
b1101001 !
15
0&
19
1:
#331250
b1101011 !
b1101010 !
05
14
1&
09
#334375
b1101011 !
15
0&
19
#337500
b1101111 !
b1101101 !
b1101100 !
05
04
16
1&
#340625
b1101101 !
15
0&
#343750
b1101111 !
b1101110 !
05
14
1&
#346875
b1101111 !
15
0&
#350000
b1111111 !
b1110111 !
b1110011 !
b1110001 !
b1110000 !
05
04
06
01
18
1&
1<
#353125
b1110001 !
15
0&
0<
#356250
b1110011 !
b1110010 !
05
14
1&
#359375
b1110011 !
15
0&
#362500
b1110111 !
b1110101 !
b1110100 !
05
04
16
1&
1<
#365625
b1110101 !
15
0&
0<
#368750
b1110111 !
b1110110 !
05
14
1&
#371875
b1110111 !
15
0&
#375000
b1111111 !
b1111011 !
b1111001 !
b1111000 !
05
04
06
11
1&
#378125
b1111001 !
15
0&
#381250
b1111011 !
b1111010 !
05
14
1&
#384375
b1111011 !
15
0&
#387500
b1111111 !
b1111101 !
b1111100 !
05
04
16
1&
#390625
b1111101 !
15
0&
#393750
b1111111 !
b1111110 !
05
14
1&
#396875
b1111111 !
15
0&
#400000
b11111111 !
b10111111 !
b10011111 !
b10001111 !
b10000111 !
b10000011 !
b10000001 !
b10000000 !
05
04
06
01
08
02
07
13
1&
1<
1=
0G
0H
00
0"
#403125
b10000001 !
15
0&
0<
09
0=
0:
1G
1H
10
1"
#406250
b10000011 !
b10000010 !
05
14
1&
19
1:
#409375
b10000011 !
15
0&
09
#412500
b10000111 !
b10000101 !
b10000100 !
05
04
16
1&
1<
0:
#415625
b10000101 !
15
0&
0<
19
1:
#418750
b10000111 !
b10000110 !
05
14
1&
09
#421875
b10000111 !
15
0&
19
#425000
b10001111 !
b10001011 !
b10001001 !
b10001000 !
05
04
06
11
1&
#428125
b10001001 !
15
0&
09
0:
#431250
b10001011 !
b10001010 !
05
14
1&
19
1:
#434375
b10001011 !
15
0&
09
#437500
b10001111 !
b10001101 !
b10001100 !
05
04
16
1&
0:
#440625
b10001101 !
15
0&
19
1:
#443750
b10001111 !
b10001110 !
05
14
1&
09
#446875
b10001111 !
15
0&
19
#450000
b10011111 !
b10010111 !
b10010011 !
b10010001 !
b10010000 !
05
04
06
01
18
1&
1<
09
1=
0:
#453125
b10010001 !
15
0&
0<
19
0=
1:
#456250
b10010011 !
b10010010 !
05
14
1&
09
#459375
b10010011 !
15
0&
19
#462500
b10010111 !
b10010101 !
b10010100 !
05
04
16
1&
1<
#465625
b10010101 !
15
0&
0<
#468750
b10010111 !
b10010110 !
05
14
1&
#471875
b10010111 !
15
0&
#475000
b10011111 !
b10011011 !
b10011001 !
b10011000 !
05
04
06
11
1&
09
0:
#478125
b10011001 !
15
0&
19
1:
#481250
b10011011 !
b10011010 !
05
14
1&
09
#484375
b10011011 !
15
0&
19
#487500
b10011111 !
b10011101 !
b10011100 !
05
04
16
1&
#490625
b10011101 !
15
0&
#493750
b10011111 !
b10011110 !
05
14
1&
#496875
b10011111 !
15
0&
#500000
b10111111 !
b10101111 !
b10100111 !
b10100011 !
b10100001 !
b10100000 !
05
04
06
01
08
12
1&
1<
1=
#503125
b10100001 !
15
0&
0<
09
0=
0:
#506250
b10100011 !
b10100010 !
05
14
1&
19
1:
#509375
b10100011 !
15
0&
09
#512500
b10100111 !
b10100101 !
b10100100 !
05
04
16
1&
1<
0:
#515625
b10100101 !
15
0&
0<
19
1:
#518750
b10100111 !
b10100110 !
05
14
1&
09
#521875
b10100111 !
15
0&
19
#525000
b10101111 !
b10101011 !
b10101001 !
b10101000 !
05
04
06
11
1&
#528125
b10101001 !
15
0&
09
0:
#531250
b10101011 !
b10101010 !
05
14
1&
19
1:
#534375
b10101011 !
15
0&
09
#537500
b10101111 !
b10101101 !
b10101100 !
05
04
16
1&
0:
#540625
b10101101 !
15
0&
19
1:
#543750
b10101111 !
b10101110 !
05
14
1&
09
#546875
b10101111 !
15
0&
19
#550000
b10111111 !
b10110111 !
b10110011 !
b10110001 !
b10110000 !
05
04
06
01
18
1&
1<
09
1=
0:
#553125
b10110001 !
15
0&
0<
19
0=
1:
#556250
b10110011 !
b10110010 !
05
14
1&
09
#559375
b10110011 !
15
0&
19
#562500
b10110111 !
b10110101 !
b10110100 !
05
04
16
1&
1<
#565625
b10110101 !
15
0&
0<
#568750
b10110111 !
b10110110 !
05
14
1&
#571875
b10110111 !
15
0&
#575000
b10111111 !
b10111011 !
b10111001 !
b10111000 !
05
04
06
11
1&
09
0:
#578125
b10111001 !
15
0&
19
1:
#581250
b10111011 !
b10111010 !
05
14
1&
09
#584375
b10111011 !
15
0&
19
#587500
b10111111 !
b10111101 !
b10111100 !
05
04
16
1&
#590625
b10111101 !
15
0&
#593750
b10111111 !
b10111110 !
05
14
1&
#596875
b10111111 !
15
0&
#600000
b11111111 !
b11011111 !
b11001111 !
b11000111 !
b11000011 !
b11000001 !
b11000000 !
05
04
06
01
08
02
17
1&
1<
09
0:
#603125
b11000001 !
15
0&
0<
19
1:
#606250
b11000011 !
b11000010 !
05
14
1&
09
#609375
b11000011 !
15
0&
19
#612500
b11000111 !
b11000101 !
b11000100 !
05
04
16
1&
1<
#615625
b11000101 !
15
0&
0<
#618750
b11000111 !
b11000110 !
05
14
1&
#621875
b11000111 !
15
0&
#625000
b11001111 !
b11001011 !
b11001001 !
b11001000 !
05
04
06
11
1&
09
0:
#628125
b11001001 !
15
0&
19
1:
#631250
b11001011 !
b11001010 !
05
14
1&
09
#634375
b11001011 !
15
0&
19
#637500
b11001111 !
b11001101 !
b11001100 !
05
04
16
1&
#640625
b11001101 !
15
0&
#643750
b11001111 !
b11001110 !
05
14
1&
#646875
b11001111 !
15
0&
#650000
b11011111 !
b11010111 !
b11010011 !
b11010001 !
b11010000 !
05
04
06
01
18
1&
1<
#653125
b11010001 !
15
0&
0<
#656250
b11010011 !
b11010010 !
05
14
1&
#659375
b11010011 !
15
0&
#662500
b11010111 !
b11010101 !
b11010100 !
05
04
16
1&
1<
#665625
b11010101 !
15
0&
0<
#668750
b11010111 !
b11010110 !
05
14
1&
#671875
b11010111 !
15
0&
#675000
b11011111 !
b11011011 !
b11011001 !
b11011000 !
05
04
06
11
1&
#678125
b11011001 !
15
0&
#681250
b11011011 !
b11011010 !
05
14
1&
#684375
b11011011 !
15
0&
#687500
b11011111 !
b11011101 !
b11011100 !
05
04
16
1&
#690625
b11011101 !
15
0&
#693750
b11011111 !
b11011110 !
05
14
1&
#696875
b11011111 !
15
0&
#700000
b11111111 !
b11101111 !
b11100111 !
b11100011 !
b11100001 !
b11100000 !
05
04
06
01
08
12
1&
1<
09
0:
#703125
b11100001 !
15
0&
0<
19
1:
#706250
b11100011 !
b11100010 !
05
14
1&
09
#709375
b11100011 !
15
0&
19
#712500
b11100111 !
b11100101 !
b11100100 !
05
04
16
1&
1<
#715625
b11100101 !
15
0&
0<
#718750
b11100111 !
b11100110 !
05
14
1&
#721875
b11100111 !
15
0&
#725000
b11101111 !
b11101011 !
b11101001 !
b11101000 !
05
04
06
11
1&
09
0:
#728125
b11101001 !
15
0&
19
1:
#731250
b11101011 !
b11101010 !
05
14
1&
09
#734375
b11101011 !
15
0&
19
#737500
b11101111 !
b11101101 !
b11101100 !
05
04
16
1&
#740625
b11101101 !
15
0&
#743750
b11101111 !
b11101110 !
05
14
1&
#746875
b11101111 !
15
0&
#750000
b11111111 !
b11110111 !
b11110011 !
b11110001 !
b11110000 !
05
04
06
01
18
1&
1<
#753125
b11110001 !
15
0&
0<
#756250
b11110011 !
b11110010 !
05
14
1&
#759375
b11110011 !
15
0&
#762500
b11110111 !
b11110101 !
b11110100 !
05
04
16
1&
1<
#765625
b11110101 !
15
0&
0<
#768750
b11110111 !
b11110110 !
05
14
1&
#771875
b11110111 !
15
0&
#775000
b11111111 !
b11111011 !
b11111001 !
b11111000 !
05
04
06
11
1&
#778125
b11111001 !
15
0&
#781250
b11111011 !
b11111010 !
05
14
1&
#784375
b11111011 !
15
0&
#787500
b11111111 !
b11111101 !
b11111100 !
05
04
16
1&
#790625
b11111101 !
15
0&
#793750
b11111111 !
b11111110 !
05
14
1&
#796875
b11111111 !
15
0&
#800000
b1111111 !
b111111 !
b11111 !
b1111 !
b111 !
b11 !
b1 !
b0 !
05
04
06
01
08
02
07
03
1&
1<
1?
1=
1@
#803125
b1 !
15
0&
0A
0<
09
0=
0:
0E
0B
0/
0.
0#
0$
0;
0H
0-
00
0%
0"
#806250
b11 !
b10 !
05
14
1&
19
1:
1;
1-
1%
#809375
b11 !
15
0&
1A
09
1E
1B
1/
1.
1#
1$
1H
10
1"
#812500
b111 !
b101 !
b100 !
05
04
16
1&
1<
0:
0@
0F
1C
0;
0-
0%
0H
0E
00
0/
0"
0#
#815625
b101 !
15
0&
0<
19
1F
0C
1:
1H
1E
1;
10
1/
1-
1"
1#
1%
#818750
b111 !
b110 !
05
14
1&
09
#821875
b111 !
15
0&
19
#825000
b1111 !
b1011 !
b1001 !
b1000 !
05
04
06
11
1&
1@
1D
0H
0E
00
0/
0"
0#
#828125
b1001 !
15
0&
0D
09
0:
1H
1E
10
1/
1"
1#
#831250
b1011 !
b1010 !
05
14
1&
19
1:
#834375
b1011 !
15
0&
09
#837500
b1111 !
b1101 !
b1100 !
05
04
16
1&
1D
0:
0@
0D
0H
0E
00
0/
0"
0#
1H
1E
10
1/
1"
1#
#840625
b1101 !
15
0&
19
1:
#843750
b1111 !
b1110 !
05
14
1&
09
#846875
b1111 !
15
0&
19
#850000
b11111 !
b10111 !
b10011 !
b10001 !
b10000 !
05
04
06
01
18
1&
1<
09
1@
0?
1=
0:
0@
0>
0;
0-
0%
0B
0.
0$
0H
00
0"
#853125
b10001 !
15
0&
0<
19
0=
1:
1>
1;
1-
1%
1B
1.
1$
1H
10
1"
#856250
b10011 !
b10010 !
05
14
1&
09
#859375
b10011 !
15
0&
19
#862500
b10111 !
b10101 !
b10100 !
05
04
16
1&
1<
#865625
b10101 !
15
0&
0<
#868750
b10111 !
b10110 !
05
14
1&
#871875
b10111 !
15
0&
#875000
b11111 !
b11011 !
b11001 !
b11000 !
05
04
06
11
1&
09
0:
#878125
b11001 !
15
0&
19
1:
#881250
b11011 !
b11010 !
05
14
1&
09
#884375
b11011 !
15
0&
19
#887500
b11111 !
b11101 !
b11100 !
05
04
16
1&
#890625
b11101 !
15
0&
#893750
b11111 !
b11110 !
05
14
1&
#896875
b11111 !
15
0&
#900000
b111111 !
b101111 !
b100111 !
b100011 !
b100001 !
b100000 !
05
04
06
01
08
12
1&
1<
1=
0>
0B
0.
0$
0H
00
0"
#903125
b100001 !
15
0&
0<
09
0=
0:
1>
1B
1.
1$
1H
10
1"
#906250
b100011 !
b100010 !
05
14
1&
19
1:
#909375
b100011 !
15
0&
09
#912500
b100111 !
b100101 !
b100100 !
05
04
16
1&
1<
0:
#915625
b100101 !
15
0&
0<
19
1:
#918750
b100111 !
b100110 !
05
14
1&
09
#921875
b100111 !
15
0&
19
#925000
b101111 !
b101011 !
b101001 !
b101000 !
05
04
06
11
1&
#928125
b101001 !
15
0&
09
0:
#931250
b101011 !
b101010 !
05
14
1&
19
1:
#934375
b101011 !
15
0&
09
#937500
b101111 !
b101101 !
b101100 !
05
04
16
1&
0:
#940625
b101101 !
15
0&
19
1:
#943750
b101111 !
b101110 !
05
14
1&
09
#946875
b101111 !
15
0&
19
#950000
b111111 !
b110111 !
b110011 !
b110001 !
b110000 !
05
04
06
01
18
1&
1<
09
1=
0:
#953125
b110001 !
15
0&
0<
19
0=
1:
#956250
b110011 !
b110010 !
05
14
1&
09
#959375
b110011 !
15
0&
19
#962500
b110111 !
b110101 !
b110100 !
05
04
16
1&
1<
#965625
b110101 !
15
0&
0<
#968750
b110111 !
b110110 !
05
14
1&
#971875
b110111 !
15
0&
#975000
b111111 !
b111011 !
b111001 !
b111000 !
05
04
06
11
1&
09
0:
#978125
b111001 !
15
0&
19
1:
#981250
b111011 !
b111010 !
05
14
1&
09
#984375
b111011 !
15
0&
19
#987500
b111111 !
b111101 !
b111100 !
05
04
16
1&
#990625
b111101 !
15
0&
#993750
b111111 !
b111110 !
05
14
1&
#996875
b111111 !
15
0&
