vehi/simulation/qsim/vehi.msim.vcd
$comment
	File created using the following command:
		vcd file vehi.msim.vcd -direction
$end
$date
	Tue Apr 18 17:55:48 2023
$end
$version
	ModelSim Version 10.1d
$end
$timescale
	1ps
$end
$scope module vehi_vlg_vec_tst $end
$var reg 8 ! v [7:0] $end
$var wire 1 " s [6] $end
$var wire 1 # s [5] $end
$var wire 1 $ s [4] $end
$var wire 1 % s [3] $end
$var wire 1 & s [2] $end
$var wire 1 ' s [1] $end
$var wire 1 ( s [0] $end
$var wire 1 ) sampler $end
$scope module i1 $end
$var wire 1 * gnd $end
$var wire 1 + vcc $end
$var wire 1 , unknown $end
$var tri1 1 - devclrn $end
$var tri1 1 . devpor $end
$var tri1 1 / devoe $end
$var wire 1 0 s[0]~output_o $end
$var wire 1 1 s[1]~output_o $end
$var wire 1 2 s[2]~output_o $end
$var wire 1 3 s[3]~output_o $end
$var wire 1 4 s[4]~output_o $end
$var wire 1 5 s[5]~output_o $end
$var wire 1 6 s[6]~output_o $end
$var wire 1 7 v[2]~input_o $end
$var wire 1 8 v[7]~input_o $end
$var wire 1 9 v[4]~input_o $end
$var wire 1 : v[5]~input_o $end
$var wire 1 ; u1|Equal7~0_combout $end
$var wire 1 < v[1]~input_o $end
$var wire 1 = v[0]~input_o $end
$var wire 1 > u1|Equal4~0_combout $end
$var wire 1 ? v[3]~input_o $end
$var wire 1 @ v[6]~input_o $end
$var wire 1 A u1|f~5_combout $end
$var wire 1 B u2|d[0]~39_combout $end
$var wire 1 C u2|d[0]~37_combout $end
$var wire 1 D u2|d[0]~49_combout $end
$var wire 1 E u1|Equal6~0_combout $end
$var wire 1 F u1|Equal2~0_combout $end
$var wire 1 G u1|f~2_combout $end
$var wire 1 H u2|d[0]~44_combout $end
$var wire 1 I u2|d[1]~29_combout $end
$var wire 1 J u2|d[1]~27_combout $end
$var wire 1 K u2|d[1]~48_combout $end
$var wire 1 L u2|d[2]~19_combout $end
$var wire 1 M u2|d[2]~18_combout $end
$var wire 1 N u2|d[2]~17_combout $end
$var wire 1 O u2|d[2]~47_combout $end
$var wire 1 P u2|d[3]~6_combout $end
$var wire 1 Q u2|d[3]~3_combout $end
$var wire 1 R u2|d[3]~46_combout $end
$var wire 1 S u1|f~0_combout $end
$var wire 1 T u1|f~4_combout $end
$var wire 1 U u1|f[0]~7_combout $end
$var wire 1 V u1|f[0]~8_combout $end
$var wire 1 W u1|f[3]~3_combout $end
$var wire 1 X u1|f[1]~6_combout $end
$var wire 1 Y u1|f~1_combout $end
$var wire 1 Z u1|Equal1~0_combout $end
$var wire 1 [ u1|f~9_combout $end
$var wire 1 \ u1|f~10_combout $end
$var wire 1 ] u2|Equal6~1_combout $end
$var wire 1 ^ u2|Equal6~0_combout $end
$var wire 1 _ u2|d[6]~45_combout $end
$upscope $end
$upscope $end
$enddefinitions $end
#0
$dumpvars
b0 !
1(
0'
0&
0%
0$
0#
0"
x)
0*
1+
x,
1-
1.
1/
10
01
02
03
04
05
06
07
08
09
0:
1;
0<
0=
1>
0?
0@
0A
1B
1C
1D
1E
1F
0G
1H
0I
0J
0K
1L
0M
0N
0O
0P
0Q
0R
1S
1T
0U
0V
1W
0X
0Y
1Z
0[
0\
0]
0^
1_
$end
#3125
b1 !
1=
0)
0Z
0W
1U
1P
1M
0L
1I
0F
0>
1]
1X
1V
1Q
1N
1J
0_
1R
1O
1K
16
13
12
11
1"
1%
1&
1'
#6250
b11 !
b10 !
0=
1<
1)
0U
0P
0M
1L
0V
0B
0R
0O
0Q
0N
1_
0C
03
02
0%
0&
1^
0D
06
14
0"
1$
0H
00
0(
#9375
b11 !
1=
0)
1W
1U
1P
1M
0L
0I
1D
0]
0X
1Q
1N
0J
1H
10
1(
0^
0K
04
01
0$
0'
#12500
b111 !
b101 !
b100 !
0=
0<
17
1)
1Z
0U
0P
1I
1F
1>
1V
1B
0E
1O
0V
0Q
1J
0S
1A
1C
0F
12
1&
1Y
0T
1K
0H
1\
1V
11
00
1'
0(
1]
#15625
b101 !
1=
0)
0Z
1P
0M
0I
0>
1Q
0N
0J
1S
0A
0Y
1T
0]
0O
0K
1H
0\
0V
02
01
10
0&
0'
1(
#18750
b111 !
b110 !
0=
1<
1)
1U
0P
1M
0B
0Q
1N
0C
#21875
b111 !
1=
0)
1P
0M
1Q
0N
#25000
b1111 !
b1011 !
b1001 !
b1000 !
0=
0<
07
1?
1)
1Z
0U
1M
0D
1>
1V
1R
1[
0V
1N
1A
13
1%
0H
1\
00
0(
1O
1]
12
1&
0_
16
1"
#28125
b1001 !
1=
0)
0Z
0P
0M
1I
1D
0>
0[
0Q
0N
1J
0A
0\
0]
0R
0O
1H
1_
03
02
10
0%
0&
1(
06
0"
#31250
b1011 !
b1010 !
0=
1<
1)
1U
1P
1M
0D
1B
1Q
1N
1C
0H
1D
00
0(
1H
10
1(
#34375
b1011 !
1=
0)
0P
0M
0I
0Q
0N
0J
#37500
b1111 !
b1101 !
b1100 !
0=
0<
17
1)
1Z
0U
1P
1I
1>
1V
0B
1[
0V
1Q
1J
0C
#40625
b1101 !
1=
0)
0Z
0P
0I
0>
0[
0Q
0J
#43750
b1111 !
b1110 !
0=
1<
1)
1U
1P
1B
1Q
1C
#46875
b1111 !
1=
0)
0P
0Q
#50000
b11111 !
b10111 !
b10011 !
b10001 !
b10000 !
0=
0<
07
0?
19
1)
0U
1L
1>
1V
1E
0;
0V
1N
1U
1F
0>
1Y
1X
0T
1O
1G
1\
1V
12
15
1&
1#
0H
00
0(
#53125
b10001 !
1=
0)
1P
1M
0L
1I
0F
0N
1J
0Y
0X
1T
0G
0\
0V
05
0#
0O
1H
02
10
0&
1(
#56250
b10011 !
b10010 !
0=
1<
1)
0P
0M
1L
0B
1N
#59375
b10011 !
1=
0)
1P
1M
0L
0I
0N
0J
#62500
b10111 !
b10101 !
b10100 !
0=
0<
17
1)
0P
1I
1F
1B
0E
1J
1Y
1X
0T
0F
1G
1\
1V
0Y
0X
1T
15
1#
0G
0H
0\
0V
05
00
0#
0(
1H
10
1(
#65625
b10101 !
1=
0)
1P
0M
0I
0J
#68750
b10111 !
b10110 !
0=
1<
1)
0P
1M
0B
#71875
b10111 !
1=
0)
1P
0M
#75000
b11111 !
b11011 !
b11001 !
b11000 !
0=
0<
07
1?
1)
1M
#78125
b11001 !
1=
0)
0P
0M
1I
1J
#81250
b11011 !
b11010 !
0=
1<
1)
1P
1M
1B
#84375
b11011 !
1=
0)
0P
0M
0I
0J
#87500
b11111 !
b11101 !
b11100 !
0=
0<
17
1)
1P
1I
0B
1J
#90625
b11101 !
1=
0)
0P
0I
0J
#93750
b11111 !
b11110 !
0=
1<
1)
1P
1B
#96875
b11111 !
1=
0)
0P
#100000
b111111 !
b101111 !
b100111 !
b100011 !
b100001 !
b100000 !
0=
0<
07
0?
09
1:
1)
1L
0B
1E
0C
1F
0D
1Y
1X
1G
1\
15
1#
0H
00
0(
#103125
b100001 !
1=
0)
1P
1M
0L
1I
0F
1D
1N
0Y
0X
0G
0\
05
0#
1H
10
1(
#106250
b100011 !
b100010 !
0=
1<
1)
0P
0M
1L
0D
1B
0N
1C
0H
1D
00
0(
1H
10
1(
#109375
b100011 !
1=
0)
1P
1M
0L
0I
1N
#112500
b100111 !
b100101 !
b100100 !
0=
0<
17
1)
0P
1I
1F
0B
0E
1Y
1X
0C
0F
1G
1\
0Y
0X
15
1#
0G
0H
0\
05
00
0#
0(
1H
10
1(
#115625
b100101 !
1=
0)
1P
0M
0I
0N
#118750
b100111 !
b100110 !
0=
1<
1)
0P
1M
1B
1N
1C
#121875
b100111 !
1=
0)
1P
0M
0N
#125000
b101111 !
b101011 !
b101001 !
b101000 !
0=
0<
07
1?
1)
1M
1N
#128125
b101001 !
1=
0)
0P
0M
1I
0N
#131250
b101011 !
b101010 !
0=
1<
1)
1P
1M
1N
#134375
b101011 !
1=
0)
0P
0M
0I
0N
#137500
b101111 !
b101101 !
b101100 !
0=
0<
17
1)
1P
1I
#140625
b101101 !
1=
0)
0P
0I
#143750
b101111 !
b101110 !
0=
1<
1)
1P
#146875
b101111 !
1=
0)
0P
#150000
b111111 !
b110111 !
b110011 !
b110001 !
b110000 !
0=
0<
07
0?
19
1)
1L
0B
1E
1N
1F
#153125
b110001 !
1=
0)
1P
1M
0L
1I
0F
0N
#156250
b110011 !
b110010 !
0=
1<
1)
0P
0M
1L
1B
1N
#159375
b110011 !
1=
0)
1P
1M
0L
0I
0N
#162500
b110111 !
b110101 !
b110100 !
0=
0<
17
1)
0P
1I
1F
0B
0E
0F
#165625
b110101 !
1=
0)
1P
0M
0I
#168750
b110111 !
b110110 !
0=
1<
1)
0P
1M
1B
#171875
b110111 !
1=
0)
1P
0M
#175000
b111111 !
b111011 !
b111001 !
b111000 !
0=
0<
07
1?
1)
1M
#178125
b111001 !
1=
0)
0P
0M
1I
#181250
b111011 !
b111010 !
0=
1<
1)
1P
1M
#184375
b111011 !
1=
0)
0P
0M
0I
#187500
b111111 !
b111101 !
b111100 !
0=
0<
17
1)
1P
1I
#190625
b111101 !
1=
0)
0P
0I
#193750
b111111 !
b111110 !
0=
1<
1)
1P
#196875
b111111 !
1=
0)
0P
#200000
b1111111 !
b1011111 !
b1001111 !
b1000111 !
b1000011 !
b1000001 !
b1000000 !
0=
0<
07
0?
09
0:
1@
1)
1Z
1P
1M
1I
1;
1Q
1N
1J
1V
0U
1>
0V
0S
1R
1O
1K
1Y
0T
13
12
11
1%
1&
1'
1\
1V
#203125
b1000001 !
1=
0)
0Z
0P
0M
0I
0>
0Q
0N
0J
1S
0Y
1T
0R
0O
0K
0\
0V
03
02
01
0%
0&
0'
#206250
b1000011 !
b1000010 !
0=
1<
1)
1U
1P
1M
0B
1Q
1N
0C
#209375
b1000011 !
1=
0)
0P
0M
0Q
0N
#212500
b1000111 !
b1000101 !
b1000100 !
0=
0<
17
1)
1Z
0U
1P
1>
1V
1B
0V
1Q
1C
#215625
b1000101 !
1=
0)
0Z
0P
0>
0Q
#218750
b1000111 !
b1000110 !
0=
1<
1)
1U
1P
0B
1Q
0C
#221875
b1000111 !
1=
0)
0P
0Q
#225000
b1001111 !
b1001011 !
b1001001 !
b1001000 !
0=
0<
07
1?
1)
1Z
0U
1I
1>
1V
1[
0V
1J
#228125
b1001001 !
1=
0)
0Z
0I
0>
0[
0J
#231250
b1001011 !
b1001010 !
0=
1<
1)
1U
1B
1C
#234375
b1001011 !
1=
0)
#237500
b1001111 !
b1001101 !
b1001100 !
0=
0<
17
1)
1Z
0U
1>
1V
0B
1[
0V
0C
#240625
b1001101 !
1=
0)
0Z
0>
0[
#243750
b1001111 !
b1001110 !
0=
1<
1)
1U
1B
1C
#246875
b1001111 !
1=
0)
#250000
b1011111 !
b1010111 !
b1010011 !
b1010001 !
b1010000 !
0=
0<
07
0?
19
1)
0U
1P
1M
1I
1>
1V
0;
0V
1J
0S
1U
0>
1Y
0T
1S
1\
1V
0Y
1T
0\
0V
#253125
b1010001 !
1=
0)
0P
0M
0I
0J
#256250
b1010011 !
b1010010 !
0=
1<
1)
1P
1M
0B
#259375
b1010011 !
1=
0)
0P
0M
#262500
b1010111 !
b1010101 !
b1010100 !
0=
0<
17
1)
1P
1B
#265625
b1010101 !
1=
0)
0P
#268750
b1010111 !
b1010110 !
0=
1<
1)
1P
0B
#271875
b1010111 !
1=
0)
0P
#275000
b1011111 !
b1011011 !
b1011001 !
b1011000 !
0=
0<
07
1?
1)
1I
1J
#278125
b1011001 !
1=
0)
0I
0J
#281250
b1011011 !
b1011010 !
0=
1<
1)
1B
#284375
b1011011 !
1=
0)
#287500
b1011111 !
b1011101 !
b1011100 !
0=
0<
17
1)
0B
#290625
b1011101 !
1=
0)
#293750
b1011111 !
b1011110 !
0=
1<
1)
1B
#296875
b1011111 !
1=
0)
#300000
b1111111 !
b1101111 !
b1100111 !
b1100011 !
b1100001 !
b1100000 !
0=
0<
07
0?
09
1:
1)
1P
1M
1I
0B
1N
0C
#303125
b1100001 !
1=
0)
0P
0M
0I
0N
#306250
b1100011 !
b1100010 !
0=
1<
1)
1P
1M
1B
1N
1C
#309375
b1100011 !
1=
0)
0P
0M
0N
#312500
b1100111 !
b1100101 !
b1100100 !
0=
0<
17
1)
1P
0B
0C
#315625
b1100101 !
1=
0)
0P
#318750
b1100111 !
b1100110 !
0=
1<
1)
1P
1B
1C
#321875
b1100111 !
1=
0)
0P
#325000
b1101111 !
b1101011 !
b1101001 !
b1101000 !
0=
0<
07
1?
1)
1I
#328125
b1101001 !
1=
0)
0I
#331250
b1101011 !
b1101010 !
0=
1<
1)
#334375
b1101011 !
1=
0)
#337500
b1101111 !
b1101101 !
b1101100 !
0=
0<
17
1)
#340625
b1101101 !
1=
0)
#343750
b1101111 !
b1101110 !
0=
1<
1)
#346875
b1101111 !
1=
0)
#350000
b1111111 !
b1110111 !
b1110011 !
b1110001 !
b1110000 !
0=
0<
07
0?
19
1)
1P
1M
1I
0B
#353125
b1110001 !
1=
0)
0P
0M
0I
#356250
b1110011 !
b1110010 !
0=
1<
1)
1P
1M
1B
#359375
b1110011 !
1=
0)
0P
0M
#362500
b1110111 !
b1110101 !
b1110100 !
0=
0<
17
1)
1P
0B
#365625
b1110101 !
1=
0)
0P
#368750
b1110111 !
b1110110 !
0=
1<
1)
1P
1B
#371875
b1110111 !
1=
0)
0P
#375000
b1111111 !
b1111011 !
b1111001 !
b1111000 !
0=
0<
07
1?
1)
1I
#378125
b1111001 !
1=
0)
0I
#381250
b1111011 !
b1111010 !
0=
1<
1)
#384375
b1111011 !
1=
0)
#387500
b1111111 !
b1111101 !
b1111100 !
0=
0<
17
1)
#390625
b1111101 !
1=
0)
#393750
b1111111 !
b1111110 !
0=
1<
1)
#396875
b1111111 !
1=
0)
#400000
b11111111 !
b10111111 !
b10011111 !
b10001111 !
b10000111 !
b10000011 !
b10000001 !
b10000000 !
0=
0<
07
0?
09
0:
0@
18
1)
1Z
1L
0B
1;
1[
0C
1V
0U
1\
0D
0V
0H
00
0(
#403125
b10000001 !
1=
0)
0Z
1P
1M
0L
1I
1D
0[
1Q
1N
1J
1H
0\
10
1(
#406250
b10000011 !
b10000010 !
0=
1<
1)
1U
0P
0M
1L
0D
1B
0Q
0N
1C
0H
1D
00
0(
1H
10
1(
#409375
b10000011 !
1=
0)
1P
1M
0L
0I
1Q
1N
0J
#412500
b10000111 !
b10000101 !
b10000100 !
0=
0<
17
1)
1Z
0U
0P
1I
1V
0B
1[
0V
0Q
1J
0C
#415625
b10000101 !
1=
0)
0Z
1P
0M
0I
0[
1Q
0N
0J
#418750
b10000111 !
b10000110 !
0=
1<
1)
1U
0P
1M
1B
0Q
1N
1C
#421875
b10000111 !
1=
0)
1P
0M
1Q
0N
#425000
b10001111 !
b10001011 !
b10001001 !
b10001000 !
0=
0<
07
1?
1)
1Z
0U
1M
1V
0V
1N
#428125
b10001001 !
1=
0)
0Z
0P
0M
1I
0Q
0N
1J
#431250
b10001011 !
b10001010 !
0=
1<
1)
1U
1P
1M
1Q
1N
#434375
b10001011 !
1=
0)
0P
0M
0I
0Q
0N
0J
#437500
b10001111 !
b10001101 !
b10001100 !
0=
0<
17
1)
1Z
0U
1P
1I
1V
0V
1Q
1J
#440625
b10001101 !
1=
0)
0Z
0P
0I
0Q
0J
#443750
b10001111 !
b10001110 !
0=
1<
1)
1U
1P
1Q
#446875
b10001111 !
1=
0)
0P
0Q
#450000
b10011111 !
b10010111 !
b10010011 !
b10010001 !
b10010000 !
0=
0<
07
0?
19
1)
0U
1L
1V
0B
0;
0V
1N
1U
#453125
b10010001 !
1=
0)
1P
1M
0L
1I
0N
1J
#456250
b10010011 !
b10010010 !
0=
1<
1)
0P
0M
1L
1B
1N
#459375
b10010011 !
1=
0)
1P
1M
0L
0I
0N
0J
#462500
b10010111 !
b10010101 !
b10010100 !
0=
0<
17
1)
0P
1I
0B
1J
#465625
b10010101 !
1=
0)
1P
0M
0I
0J
#468750
b10010111 !
b10010110 !
0=
1<
1)
0P
1M
1B
#471875
b10010111 !
1=
0)
1P
0M
#475000
b10011111 !
b10011011 !
b10011001 !
b10011000 !
0=
0<
07
1?
1)
1M
#478125
b10011001 !
1=
0)
0P
0M
1I
1J
#481250
b10011011 !
b10011010 !
0=
1<
1)
1P
1M
#484375
b10011011 !
1=
0)
0P
0M
0I
0J
#487500
b10011111 !
b10011101 !
b10011100 !
0=
0<
17
1)
1P
1I
1J
#490625
b10011101 !
1=
0)
0P
0I
0J
#493750
b10011111 !
b10011110 !
0=
1<
1)
1P
#496875
b10011111 !
1=
0)
0P
#500000
b10111111 !
b10101111 !
b10100111 !
b10100011 !
b10100001 !
b10100000 !
0=
0<
07
0?
09
1:
1)
1L
#503125
b10100001 !
1=
0)
1P
1M
0L
1I
1N
#506250
b10100011 !
b10100010 !
0=
1<
1)
0P
0M
1L
0N
#509375
b10100011 !
1=
0)
1P
1M
0L
0I
1N
#512500
b10100111 !
b10100101 !
b10100100 !
0=
0<
17
1)
0P
1I
#515625
b10100101 !
1=
0)
1P
0M
0I
0N
#518750
b10100111 !
b10100110 !
0=
1<
1)
0P
1M
1N
#521875
b10100111 !
1=
0)
1P
0M
0N
#525000
b10101111 !
b10101011 !
b10101001 !
b10101000 !
0=
0<
07
1?
1)
1M
1N
#528125
b10101001 !
1=
0)
0P
0M
1I
0N
#531250
b10101011 !
b10101010 !
0=
1<
1)
1P
1M
1N
#534375
b10101011 !
1=
0)
0P
0M
0I
0N
#537500
b10101111 !
b10101101 !
b10101100 !
0=
0<
17
1)
1P
1I
#540625
b10101101 !
1=
0)
0P
0I
#543750
b10101111 !
b10101110 !
0=
1<
1)
1P
#546875
b10101111 !
1=
0)
0P
#550000
b10111111 !
b10110111 !
b10110011 !
b10110001 !
b10110000 !
0=
0<
07
0?
19
1)
1L
1N
#553125
b10110001 !
1=
0)
1P
1M
0L
1I
0N
#556250
b10110011 !
b10110010 !
0=
1<
1)
0P
0M
1L
1N
#559375
b10110011 !
1=
0)
1P
1M
0L
0I
0N
#562500
b10110111 !
b10110101 !
b10110100 !
0=
0<
17
1)
0P
1I
#565625
b10110101 !
1=
0)
1P
0M
0I
#568750
b10110111 !
b10110110 !
0=
1<
1)
0P
1M
#571875
b10110111 !
1=
0)
1P
0M
#575000
b10111111 !
b10111011 !
b10111001 !
b10111000 !
0=
0<
07
1?
1)
1M
#578125
b10111001 !
1=
0)
0P
0M
1I
#581250
b10111011 !
b10111010 !
0=
1<
1)
1P
1M
#584375
b10111011 !
1=
0)
0P
0M
0I
#587500
b10111111 !
b10111101 !
b10111100 !
0=
0<
17
1)
1P
1I
#590625
b10111101 !
1=
0)
0P
0I
#593750
b10111111 !
b10111110 !
0=
1<
1)
1P
#596875
b10111111 !
1=
0)
0P
#600000
b11111111 !
b11011111 !
b11001111 !
b11000111 !
b11000011 !
b11000001 !
b11000000 !
0=
0<
07
0?
09
0:
1@
1)
1Z
1P
1M
1I
0B
1;
1[
1Q
1N
1J
0C
1V
0U
0V
#603125
b11000001 !
1=
0)
0Z
0P
0M
0I
0[
0Q
0N
0J
#606250
b11000011 !
b11000010 !
0=
1<
1)
1U
1P
1M
1B
1Q
1N
1C
#609375
b11000011 !
1=
0)
0P
0M
0Q
0N
#612500
b11000111 !
b11000101 !
b11000100 !
0=
0<
17
1)
1Z
0U
1P
1V
0B
1[
0V
1Q
0C
#615625
b11000101 !
1=
0)
0Z
0P
0[
0Q
#618750
b11000111 !
b11000110 !
0=
1<
1)
1U
1P
1B
1Q
1C
#621875
b11000111 !
1=
0)
0P
0Q
#625000
b11001111 !
b11001011 !
b11001001 !
b11001000 !
0=
0<
07
1?
1)
1Z
0U
1I
1V
0V
1J
#628125
b11001001 !
1=
0)
0Z
0I
0J
#631250
b11001011 !
b11001010 !
0=
1<
1)
1U
#634375
b11001011 !
1=
0)
#637500
b11001111 !
b11001101 !
b11001100 !
0=
0<
17
1)
1Z
0U
1V
0V
#640625
b11001101 !
1=
0)
0Z
#643750
b11001111 !
b11001110 !
0=
1<
1)
1U
#646875
b11001111 !
1=
0)
#650000
b11011111 !
b11010111 !
b11010011 !
b11010001 !
b11010000 !
0=
0<
07
0?
19
1)
0U
1P
1M
1I
1V
0B
0;
0V
1J
1U
#653125
b11010001 !
1=
0)
0P
0M
0I
0J
#656250
b11010011 !
b11010010 !
0=
1<
1)
1P
1M
1B
#659375
b11010011 !
1=
0)
0P
0M
#662500
b11010111 !
b11010101 !
b11010100 !
0=
0<
17
1)
1P
0B
#665625
b11010101 !
1=
0)
0P
#668750
b11010111 !
b11010110 !
0=
1<
1)
1P
1B
#671875
b11010111 !
1=
0)
0P
#675000
b11011111 !
b11011011 !
b11011001 !
b11011000 !
0=
0<
07
1?
1)
1I
1J
#678125
b11011001 !
1=
0)
0I
0J
#681250
b11011011 !
b11011010 !
0=
1<
1)
#684375
b11011011 !
1=
0)
#687500
b11011111 !
b11011101 !
b11011100 !
0=
0<
17
1)
#690625
b11011101 !
1=
0)
#693750
b11011111 !
b11011110 !
0=
1<
1)
#696875
b11011111 !
1=
0)
#700000
b11111111 !
b11101111 !
b11100111 !
b11100011 !
b11100001 !
b11100000 !
0=
0<
07
0?
09
1:
1)
1P
1M
1I
1N
#703125
b11100001 !
1=
0)
0P
0M
0I
0N
#706250
b11100011 !
b11100010 !
0=
1<
1)
1P
1M
1N
#709375
b11100011 !
1=
0)
0P
0M
0N
#712500
b11100111 !
b11100101 !
b11100100 !
0=
0<
17
1)
1P
#715625
b11100101 !
1=
0)
0P
#718750
b11100111 !
b11100110 !
0=
1<
1)
1P
#721875
b11100111 !
1=
0)
0P
#725000
b11101111 !
b11101011 !
b11101001 !
b11101000 !
0=
0<
07
1?
1)
1I
#728125
b11101001 !
1=
0)
0I
#731250
b11101011 !
b11101010 !
0=
1<
1)
#734375
b11101011 !
1=
0)
#737500
b11101111 !
b11101101 !
b11101100 !
0=
0<
17
1)
#740625
b11101101 !
1=
0)
#743750
b11101111 !
b11101110 !
0=
1<
1)
#746875
b11101111 !
1=
0)
#750000
b11111111 !
b11110111 !
b11110011 !
b11110001 !
b11110000 !
0=
0<
07
0?
19
1)
1P
1M
1I
#753125
b11110001 !
1=
0)
0P
0M
0I
#756250
b11110011 !
b11110010 !
0=
1<
1)
1P
1M
#759375
b11110011 !
1=
0)
0P
0M
#762500
b11110111 !
b11110101 !
b11110100 !
0=
0<
17
1)
1P
#765625
b11110101 !
1=
0)
0P
#768750
b11110111 !
b11110110 !
0=
1<
1)
1P
#771875
b11110111 !
1=
0)
0P
#775000
b11111111 !
b11111011 !
b11111001 !
b11111000 !
0=
0<
07
1?
1)
1I
#778125
b11111001 !
1=
0)
0I
#781250
b11111011 !
b11111010 !
0=
1<
1)
#784375
b11111011 !
1=
0)
#787500
b11111111 !
b11111101 !
b11111100 !
0=
0<
17
1)
#790625
b11111101 !
1=
0)
#793750
b11111111 !
b11111110 !
0=
1<
1)
#796875
b11111111 !
1=
0)
#800000
b1111111 !
b111111 !
b11111 !
b1111 !
b111 !
b11 !
b1 !
b0 !
0=
0<
07
0?
09
0:
0@
08
1)
1Z
1L
1E
1;
0U
1F
1V
1>
0V
#803125
b1 !
1=
0)
0Z
0W
1U
1P
1M
0L
1I
0F
0>
1]
1X
1V
1Q
1N
1J
0_
1R
1O
1K
16
13
12
11
1"
1%
1&
1'
#806250
b11 !
b10 !
0=
1<
1)
0U
0P
0M
1L
0V
0B
0R
0O
0Q
0N
1_
0C
03
02
0%
0&
1^
0D
06
14
0"
1$
0H
00
0(
#809375
b11 !
1=
0)
1W
1U
1P
1M
0L
0I
1D
0]
0X
1Q
1N
0J
1H
10
1(
0^
0K
04
01
0$
0'
#812500
b111 !
b101 !
b100 !
0=
0<
17
1)
1Z
0U
0P
1I
1F
1>
1V
1B
0E
1O
0V
0Q
1J
0S
1A
1C
0F
12
1&
1Y
0T
1K
0H
1\
1V
11
00
1'
0(
1]
#815625
b101 !
1=
0)
0Z
1P
0M
0I
0>
1Q
0N
0J
1S
0A
0Y
1T
0]
0O
0K
1H
0\
0V
02
01
10
0&
0'
1(
#818750
b111 !
b110 !
0=
1<
1)
1U
0P
1M
0B
0Q
1N
0C
#821875
b111 !
1=
0)
1P
0M
1Q
0N
#825000
b1111 !
b1011 !
b1001 !
b1000 !
0=
0<
07
1?
1)
1Z
0U
1M
0D
1>
1V
1R
1[
0V
1N
1A
13
1%
0H
1\
00
0(
1O
1]
12
1&
0_
16
1"
#828125
b1001 !
1=
0)
0Z
0P
0M
1I
1D
0>
0[
0Q
0N
1J
0A
0\
0]
0R
0O
1H
1_
03
02
10
0%
0&
1(
06
0"
#831250
b1011 !
b1010 !
0=
1<
1)
1U
1P
1M
0D
1B
1Q
1N
1C
0H
1D
00
0(
1H
10
1(
#834375
b1011 !
1=
0)
0P
0M
0I
0Q
0N
0J
#837500
b1111 !
b1101 !
b1100 !
0=
0<
17
1)
1Z
0U
1P
1I
1>
1V
0B
1[
0V
1Q
1J
0C
#840625
b1101 !
1=
0)
0Z
0P
0I
0>
0[
0Q
0J
#843750
b1111 !
b1110 !
0=
1<
1)
1U
1P
1B
1Q
1C
#846875
b1111 !
1=
0)
0P
0Q
#850000
b11111 !
b10111 !
b10011 !
b10001 !
b10000 !
0=
0<
07
0?
19
1)
0U
1L
1>
1V
1E
0;
0V
1N
1U
1F
0>
1Y
1X
0T
1O
1G
1\
1V
12
15
1&
1#
0H
00
0(
#853125
b10001 !
1=
0)
1P
1M
0L
1I
0F
0N
1J
0Y
0X
1T
0G
0\
0V
05
0#
0O
1H
02
10
0&
1(
#856250
b10011 !
b10010 !
0=
1<
1)
0P
0M
1L
0B
1N
#859375
b10011 !
1=
0)
1P
1M
0L
0I
0N
0J
#862500
b10111 !
b10101 !
b10100 !
0=
0<
17
1)
0P
1I
1F
1B
0E
1J
1Y
1X
0T
0F
1G
1\
1V
0Y
0X
1T
15
1#
0G
0H
0\
0V
05
00
0#
0(
1H
10
1(
#865625
b10101 !
1=
0)
1P
0M
0I
0J
#868750
b10111 !
b10110 !
0=
1<
1)
0P
1M
0B
#871875
b10111 !
1=
0)
1P
0M
#875000
b11111 !
b11011 !
b11001 !
b11000 !
0=
0<
07
1?
1)
1M
#878125
b11001 !
1=
0)
0P
0M
1I
1J
#881250
b11011 !
b11010 !
0=
1<
1)
1P
1M
1B
#884375
b11011 !
1=
0)
0P
0M
0I
0J
#887500
b11111 !
b11101 !
b11100 !
0=
0<
17
1)
1P
1I
0B
1J
#890625
b11101 !
1=
0)
0P
0I
0J
#893750
b11111 !
b11110 !
0=
1<
1)
1P
1B
#896875
b11111 !
1=
0)
0P
#900000
b111111 !
b101111 !
b100111 !
b100011 !
b100001 !
b100000 !
0=
0<
07
0?
09
1:
1)
1L
0B
1E
0C
1F
0D
1Y
1X
1G
1\
15
1#
0H
00
0(
#903125
b100001 !
1=
0)
1P
1M
0L
1I
0F
1D
1N
0Y
0X
0G
0\
05
0#
1H
10
1(
#906250
b100011 !
b100010 !
0=
1<
1)
0P
0M
1L
0D
1B
0N
1C
0H
1D
00
0(
1H
10
1(
#909375
b100011 !
1=
0)
1P
1M
0L
0I
1N
#912500
b100111 !
b100101 !
b100100 !
0=
0<
17
1)
0P
1I
1F
0B
0E
1Y
1X
0C
0F
1G
1\
0Y
0X
15
1#
0G
0H
0\
05
00
0#
0(
1H
10
1(
#915625
b100101 !
1=
0)
1P
0M
0I
0N
#918750
b100111 !
b100110 !
0=
1<
1)
0P
1M
1B
1N
1C
#921875
b100111 !
1=
0)
1P
0M
0N
#925000
b101111 !
b101011 !
b101001 !
b101000 !
0=
0<
07
1?
1)
1M
1N
#928125
b101001 !
1=
0)
0P
0M
1I
0N
#931250
b101011 !
b101010 !
0=
1<
1)
1P
1M
1N
#934375
b101011 !
1=
0)
0P
0M
0I
0N
#937500
b101111 !
b101101 !
b101100 !
0=
0<
17
1)
1P
1I
#940625
b101101 !
1=
0)
0P
0I
#943750
b101111 !
b101110 !
0=
1<
1)
1P
#946875
b101111 !
1=
0)
0P
#950000
b111111 !
b110111 !
b110011 !
b110001 !
b110000 !
0=
0<
07
0?
19
1)
1L
0B
1E
1N
1F
#953125
b110001 !
1=
0)
1P
1M
0L
1I
0F
0N
#956250
b110011 !
b110010 !
0=
1<
1)
0P
0M
1L
1B
1N
#959375
b110011 !
1=
0)
1P
1M
0L
0I
0N
#962500
b110111 !
b110101 !
b110100 !
0=
0<
17
1)
0P
1I
1F
0B
0E
0F
#965625
b110101 !
1=
0)
1P
0M
0I
#968750
b110111 !
b110110 !
0=
1<
1)
0P
1M
1B
#971875
b110111 !
1=
0)
1P
0M
#975000
b111111 !
b111011 !
b111001 !
b111000 !
0=
0<
07
1?
1)
1M
#978125
b111001 !
1=
0)
0P
0M
1I
#981250
b111011 !
b111010 !
0=
1<
1)
1P
1M
#984375
b111011 !
1=
0)
0P
0M
0I
#987500
b111111 !
b111101 !
b111100 !
0=
0<
17
1)
1P
1I
#990625
b111101 !
1=
0)
0P
0I
#993750
b111111 !
b111110 !
0=
1<
1)
1P
#996875
b111111 !
1=
0)
0P
