BCD7SEG/simulation/qsim/BCD7SEG.msim.vcd
$comment
	File created using the following command:
		vcd file BCD7SEG.msim.vcd -direction
$end
$date
	Tue Apr 18 17:10:10 2023
$end
$version
	ModelSim Version 10.1d
$end
$timescale
	1ps
$end
$scope module BCD7SEG_vlg_vec_tst $end
$var reg 4 ! p [3:0] $end
$var wire 1 " d [6] $end
$var wire 1 # d [5] $end
$var wire 1 $ d [4] $end
$var wire 1 % d [3] $end
$var wire 1 & d [2] $end
$var wire 1 ' d [1] $end
$var wire 1 ( d [0] $end
$var wire 1 ) sampler $end
$scope module i1 $end
$var wire 1 * gnd $end
$var wire 1 + vcc $end
$var wire 1 , unknown $end
$var tri1 1 - devclrn $end
$var tri1 1 . devpor $end
$var tri1 1 / devoe $end
$var wire 1 0 d[0]~output_o $end
$var wire 1 1 d[1]~output_o $end
$var wire 1 2 d[2]~output_o $end
$var wire 1 3 d[3]~output_o $end
$var wire 1 4 d[4]~output_o $end
$var wire 1 5 d[5]~output_o $end
$var wire 1 6 d[6]~output_o $end
$var wire 1 7 p[3]~input_o $end
$var wire 1 8 p[0]~input_o $end
$var wire 1 9 p[1]~input_o $end
$var wire 1 : p[2]~input_o $end
$var wire 1 ; d~0_combout $end
$var wire 1 < d~1_combout $end
$var wire 1 = d~2_combout $end
$var wire 1 > d~3_combout $end
$var wire 1 ? Equal6~0_combout $end
$var wire 1 @ d~4_combout $end
$var wire 1 A d~5_combout $end
$upscope $end
$upscope $end
$enddefinitions $end
#0
$dumpvars
b0 !
1(
1'
1&
1%
0$
0#
1"
x)
0*
1+
x,
1-
1.
1/
10
11
12
13
04
05
16
07
08
09
0:
0;
1<
1=
1>
0?
0@
0A
$end
#50000
b1 !
18
0)
1A
1;
1?
0>
0=
06
00
14
03
02
0"
0(
1$
0%
0&
#100000
b11 !
b10 !
08
19
1)
0?
1=
04
12
0$
1&
#150000
b11 !
18
0)
0A
1>
0<
16
13
01
1"
1%
0'
#200000
b111 !
b101 !
b100 !
08
09
1:
1)
1A
0>
1@
06
03
15
0"
0%
1#
#250000
b101 !
18
0)
0=
02
0&
#300000
b111 !
b110 !
08
19
1)
0;
1>
1=
1<
0@
10
13
12
11
05
1(
1%
1&
1'
0#
#350000
b111 !
18
0)
1;
0>
0=
0<
00
03
02
01
0(
0%
0&
0'
#400000
b1111 !
b1011 !
b1001 !
b1000 !
08
09
0:
17
1)
0;
10
1(
#450000
b1001 !
18
0)
#500000
b1011 !
b1010 !
08
19
1)
#550000
b1011 !
18
0)
#600000
b1111 !
b1101 !
b1100 !
08
09
1:
1)
#650000
b1101 !
18
0)
#700000
b1111 !
b1110 !
08
19
1)
#750000
b1111 !
18
0)
#800000
b111 !
b11 !
b1 !
b0 !
08
09
0:
07
1)
0A
1>
1=
1<
16
13
12
11
1"
1%
1&
1'
#850000
b1 !
18
0)
1A
1;
1?
0>
0=
06
00
14
03
02
0"
0(
1$
0%
0&
#900000
b11 !
b10 !
08
19
1)
0?
1=
04
12
0$
1&
#950000
b11 !
18
0)
0A
1>
0<
16
13
01
1"
1%
0'
